{
    "archievementsClasses": false,
    "data": [{
        "text": "ea irure Lorem ea do labore dolore exercitation nulla incididunt fugiat ex minim non duis elit velit voluptate reprehenderit velit",
        "date": "2016-03-02T02:23:37 -01:00"
    }, {
        "text": "mollit dolore minim velit voluptate cupidatat aliquip laborum pariatur ipsum qui dolor qui pariatur laborum duis id qui sunt laborum",
        "date": "2014-08-29T04:19:45 -02:00"
    }, {
        "text": "adipisicing eu reprehenderit deserunt ea esse nostrud ex cupidatat ullamco ex laborum ut consequat quis id laboris irure deserunt non",
        "date": "2014-06-13T08:40:23 -02:00"
    }, {
        "text": "ullamco velit voluptate nisi sit adipisicing velit non minim ea esse amet exercitation nostrud mollit velit est commodo quis est",
        "date": "2014-01-03T04:42:27 -01:00"
    }, {
        "text": "exercitation id exercitation ipsum fugiat consequat veniam consequat incididunt cupidatat aute excepteur incididunt qui sunt sunt deserunt veniam laborum esse",
        "date": "2014-03-31T03:42:42 -02:00"
    }, {
        "text": "in in quis non enim nulla irure magna sit officia laboris reprehenderit adipisicing dolore dolor do do nisi dolor esse",
        "date": "2015-12-11T01:27:55 -01:00"
    }, {
        "text": "eu consequat consectetur amet deserunt laboris anim elit aliquip sit nostrud reprehenderit nisi dolore elit dolor esse sit dolore enim",
        "date": "2014-09-05T03:24:32 -02:00"
    }]
}
