<?xml version="1.0" encoding="UTF-8" standalone="no"?>
<svg width="30px" height="30px" viewBox="0 0 30 30" version="1.1" xmlns="http://www.w3.org/2000/svg" xmlns:xlink="http://www.w3.org/1999/xlink">
    <!-- Generator: Sketch 39.1 (31720) - http://www.bohemiancoding.com/sketch -->
    <title>about_twitter</title>
    <desc>Created with Sketch.</desc>
    <defs></defs>
    <g id="About-Wolfpack" stroke="none" stroke-width="1" fill="none" fill-rule="evenodd">
        <g id="Artboard" transform="translate(-497.000000, -363.000000)">
            <g id="about_twitter" transform="translate(497.000000, 363.000000)">
                <circle id="Oval-66-Copy-2" fill="#1A1A1A" cx="15" cy="15" r="15"></circle>
                <path d="M23.0041901,10.5381046 C22.4151461,10.7991145 21.7831103,10.9761285 21.1190399,11.0551558 C21.7971009,10.6491142 22.3161396,10.0050752 22.562139,9.24001094 C21.9261022,9.61603157 21.2240349,9.88907083 20.4759685,10.0370837 C19.8769349,9.3980395 19.0248673,9 18.0797817,9 C16.2666504,9 14.7965376,10.4701128 14.7965376,12.2822503 C14.7965376,12.5392592 14.8255388,12.7902796 14.8815535,13.0303167 C12.1533576,12.8932871 9.73418437,11.5861977 8.115065,9.60002736 C7.83203619,10.0840764 7.67102645,10.6480943 7.67102645,11.2501614 C7.67102645,12.3892589 8.25107469,13.3943342 9.13114968,13.9823583 C8.59309944,13.9643667 8.08705763,13.8163538 7.64403895,13.5703282 L7.64403895,13.6113325 C7.64403895,15.2014508 8.77612805,16.5285455 10.2772294,16.8305858 C10.0022027,16.9045923 9.71219165,16.9455965 9.41216489,16.9455965 C9.20016133,16.9455965 8.99514,16.9245975 8.79411972,16.884587 C9.21213834,18.189689 10.4242485,19.1387495 11.8603654,19.1647694 C10.7372722,20.0448444 9.32116053,20.5678841 7.78305597,20.5678841 C7.51804498,20.5678841 7.25700889,20.5518799 7,20.5228788 C8.45311485,21.4559612 10.1782491,22 12.0323846,22 C18.0718319,22 21.3730938,16.9976102 21.3730938,12.6592908 L21.3620843,12.2342638 C22.007117,11.7741949 22.5651464,11.1961603 23.0041901,10.5381046 L23.0041901,10.5381046 Z" id="Shape" fill="#FFFFFF"></path>
            </g>
        </g>
    </g>
</svg>