{
	"default": {
		"teaserBlockContextClass": "default",
		"teaserBlockClasses": "is-center",
		"teaserBlockTitle": "Default",
		"cta": {
			"ctaTarget": "#",
			"ctaContextClass": "default",
			"ctaClass": false,
			"ctaIcon": true,
			"ctaContent": "content"
		}
	},
	"light": {
		"teaserBlockContextClass": "light",
		"teaserBlockClasses": "is-center",
		"teaserBlockTitle": "Light",
		"cta": {
			"ctaTarget": "#",
			"ctaContextClass": "dark",
			"ctaClass": false,
			"ctaIcon": true,
			"ctaContent": "content"
		}
	},
	"spotify": {
		"teaserBlockContextClass": "spotify",
		"cta": {
			"ctaTarget": "#",
			"ctaContextClass": "default",
			"ctaClass": false,
			"ctaIcon": true,
			"ctaContent": "content"
		}
	},
	"dark": {
		"teaserBlockContextClass": "dark",
		"teaserBlockClasses": "is-center",
		"teaserBlockTitle": "Dark",
		"cta": {
			"ctaTarget": "#",
			"ctaContextClass": "default",
			"ctaClass": false,
			"ctaIcon": true,
			"ctaContent": "content"
		}
	}
}
